\relax 
\providecommand\hyper@newdestlabel[2]{}
\providecommand{\transparent@use}[1]{}
\@writefile{lof}{\defcounter {refsection}{0}\relax }\@writefile{lof}{\addvspace {10pt}}
\@writefile{lot}{\defcounter {refsection}{0}\relax }\@writefile{lot}{\addvspace {10pt}}
\@writefile{toc}{\defcounter {refsection}{0}\relax }\@writefile{toc}{\contentsline {chapter}{\chapternumberline {3}Implementace}{41}{chapter.3}}
\@writefile{toc}{\defcounter {refsection}{0}\relax }\@writefile{toc}{\contentsline {section}{\numberline {3.1}Pou\IeC {\v z}it\IeC {\'e} technologie}{41}{section.3.1}}
\@writefile{toc}{\defcounter {refsection}{0}\relax }\@writefile{toc}{\contentsline {subsection}{\numberline {3.1.1}Framework Symfony}{42}{subsection.3.1.1}}
\@writefile{toc}{\defcounter {refsection}{0}\relax }\@writefile{toc}{\contentsline {subsubsection}{\numberline {3.1.1.1}Architektura MVC}{42}{subsubsection.3.1.1.1}}
\@writefile{lof}{\defcounter {refsection}{0}\relax }\@writefile{lof}{\contentsline {figure}{\numberline {3.1}{\ignorespaces Diagram struktury architektury MVC}}{43}{figure.3.1}}
\newlabel{img:mvc}{{3.1}{43}{Diagram struktury architektury MVC}{figure.3.1}{}}
\@writefile{toc}{\defcounter {refsection}{0}\relax }\@writefile{toc}{\contentsline {subsubsection}{\numberline {3.1.1.2}Konzole}{43}{subsubsection.3.1.1.2}}
\@writefile{toc}{\defcounter {refsection}{0}\relax }\@writefile{toc}{\contentsline {subsubsection}{\numberline {3.1.1.3}Bundly}{43}{subsubsection.3.1.1.3}}
\@writefile{toc}{\defcounter {refsection}{0}\relax }\@writefile{toc}{\contentsline {subsubsection}{\numberline {3.1.1.4}Zpracov\IeC {\'a}n\IeC {\'\i } a~sm\IeC {\v e}rov\IeC {\'a}n\IeC {\'\i } po\IeC {\v z}adavku}{44}{subsubsection.3.1.1.4}}
\@writefile{lof}{\defcounter {refsection}{0}\relax }\@writefile{lof}{\contentsline {figure}{\numberline {3.2}{\ignorespaces Diagram zpracov\IeC {\'a}n\IeC {\'\i } po\IeC {\v z}adavku ve framewroku Symfony}}{44}{figure.3.2}}
\newlabel{img:mvc}{{3.2}{44}{Diagram zpracování požadavku ve framewroku Symfony}{figure.3.2}{}}
\@writefile{toc}{\defcounter {refsection}{0}\relax }\@writefile{toc}{\contentsline {subsubsection}{\numberline {3.1.1.5}Adres\IeC {\'a}\IeC {\v r}ov\IeC {\'a} struktura}{45}{subsubsection.3.1.1.5}}
\@writefile{lof}{\defcounter {refsection}{0}\relax }\@writefile{lof}{\contentsline {figure}{\numberline {3.3}{\ignorespaces Ilustra\IeC {\v c}n\IeC {\'\i } adres\IeC {\'a}\IeC {\v r}ov\IeC {\'a} struktura Symfony aplikace}}{45}{figure.3.3}}
\newlabel{adresar:symfony}{{3.3}{45}{Ilustrační adresářová struktura Symfony aplikace}{figure.3.3}{}}
\@writefile{toc}{\defcounter {refsection}{0}\relax }\@writefile{toc}{\contentsline {subsection}{\numberline {3.1.2}HTML}{46}{subsection.3.1.2}}
\@writefile{toc}{\defcounter {refsection}{0}\relax }\@writefile{toc}{\contentsline {subsection}{\numberline {3.1.3}CSS}{46}{subsection.3.1.3}}
\@writefile{toc}{\defcounter {refsection}{0}\relax }\@writefile{toc}{\contentsline {subsection}{\numberline {3.1.4}PHP}{46}{subsection.3.1.4}}
\@writefile{toc}{\defcounter {refsection}{0}\relax }\@writefile{toc}{\contentsline {subsection}{\numberline {3.1.5}JavaScript}{47}{subsection.3.1.5}}
\@writefile{toc}{\defcounter {refsection}{0}\relax }\@writefile{toc}{\contentsline {subsection}{\numberline {3.1.6}jQuery}{47}{subsection.3.1.6}}
\@writefile{toc}{\defcounter {refsection}{0}\relax }\@writefile{toc}{\contentsline {subsection}{\numberline {3.1.7}Bootstrap}{47}{subsection.3.1.7}}
\@writefile{toc}{\defcounter {refsection}{0}\relax }\@writefile{toc}{\contentsline {subsection}{\numberline {3.1.8}Twig}{47}{subsection.3.1.8}}
\@writefile{toc}{\defcounter {refsection}{0}\relax }\@writefile{toc}{\contentsline {subsection}{\numberline {3.1.9}Doctrine 2}{48}{subsection.3.1.9}}
\@writefile{toc}{\defcounter {refsection}{0}\relax }\@writefile{toc}{\contentsline {subsection}{\numberline {3.1.10}MySQL}{48}{subsection.3.1.10}}
\@writefile{toc}{\defcounter {refsection}{0}\relax }\@writefile{toc}{\contentsline {subsection}{\numberline {3.1.11}Composer}{48}{subsection.3.1.11}}
\@writefile{toc}{\defcounter {refsection}{0}\relax }\@writefile{toc}{\contentsline {subsection}{\numberline {3.1.12}Pou\IeC {\v z}it\IeC {\'e} bundly}{49}{subsection.3.1.12}}
\@writefile{lof}{\defcounter {refsection}{0}\relax }\@writefile{lof}{\contentsline {figure}{\numberline {3.4}{\ignorespaces Diagram mapov\IeC {\'a}n\IeC {\'\i } entit a~fungov\IeC {\'a}n\IeC {\'\i } Doctrine}}{49}{figure.3.4}}
\newlabel{img:doctrine}{{3.4}{49}{Diagram mapování entit a~fungování Doctrine}{figure.3.4}{}}
\@writefile{toc}{\defcounter {refsection}{0}\relax }\@writefile{toc}{\contentsline {section}{\numberline {3.2}Architektura aplikace}{50}{section.3.2}}
\@writefile{toc}{\defcounter {refsection}{0}\relax }\@writefile{toc}{\contentsline {subsection}{\numberline {3.2.1}Entity}{50}{subsection.3.2.1}}
\newlabel{code:entita}{{3.1}{51}{Příklad entitní třídy a~použití anotací}{lstlisting.3.1}{}}
\@writefile{lol}{\defcounter {refsection}{0}\relax }\@writefile{lol}{\contentsline {lstlisting}{\numberline {3.1}P\IeC {\v r}\IeC {\'\i }klad entitn\IeC {\'\i } t\IeC {\v r}\IeC {\'\i }dy a~pou\IeC {\v z}it\IeC {\'\i } anotac\IeC {\'\i }}{51}{lstlisting.3.1}}
\@writefile{toc}{\defcounter {refsection}{0}\relax }\@writefile{toc}{\contentsline {subsection}{\numberline {3.2.2}Validace dat}{52}{subsection.3.2.2}}
\newlabel{code:validate}{{3.2}{52}{Příklad použití validačních pravidel}{lstlisting.3.2}{}}
\@writefile{lol}{\defcounter {refsection}{0}\relax }\@writefile{lol}{\contentsline {lstlisting}{\numberline {3.2}P\IeC {\v r}\IeC {\'\i }klad pou\IeC {\v z}it\IeC {\'\i } valida\IeC {\v c}n\IeC {\'\i }ch pravidel}{52}{lstlisting.3.2}}
\@writefile{toc}{\defcounter {refsection}{0}\relax }\@writefile{toc}{\contentsline {subsection}{\numberline {3.2.3}Asociace}{53}{subsection.3.2.3}}
\newlabel{manytoone}{{3.3}{53}{Příklad použití vazby ManyToOne}{lstlisting.3.3}{}}
\@writefile{lol}{\defcounter {refsection}{0}\relax }\@writefile{lol}{\contentsline {lstlisting}{\numberline {3.3}P\IeC {\v r}\IeC {\'\i }klad pou\IeC {\v z}it\IeC {\'\i } vazby ManyToOne}{53}{lstlisting.3.3}}
\newlabel{onetomany}{{3.4}{54}{Příklad použití vazby OneToMany}{lstlisting.3.4}{}}
\@writefile{lol}{\defcounter {refsection}{0}\relax }\@writefile{lol}{\contentsline {lstlisting}{\numberline {3.4}P\IeC {\v r}\IeC {\'\i }klad pou\IeC {\v z}it\IeC {\'\i } vazby OneToMany}{54}{lstlisting.3.4}}
\newlabel{manytomany}{{3.5}{55}{Příklad použití vazby ManyToMany}{lstlisting.3.5}{}}
\@writefile{lol}{\defcounter {refsection}{0}\relax }\@writefile{lol}{\contentsline {lstlisting}{\numberline {3.5}P\IeC {\v r}\IeC {\'\i }klad pou\IeC {\v z}it\IeC {\'\i } vazby ManyToMany}{55}{lstlisting.3.5}}
\@writefile{toc}{\defcounter {refsection}{0}\relax }\@writefile{toc}{\contentsline {subsection}{\numberline {3.2.4}Controllery}{55}{subsection.3.2.4}}
\newlabel{lst:controller}{{3.6}{56}{Příklad použití kontroleru}{lstlisting.3.6}{}}
\@writefile{lol}{\defcounter {refsection}{0}\relax }\@writefile{lol}{\contentsline {lstlisting}{\numberline {3.6}P\IeC {\v r}\IeC {\'\i }klad pou\IeC {\v z}it\IeC {\'\i } kontroleru}{56}{lstlisting.3.6}}
\@writefile{toc}{\defcounter {refsection}{0}\relax }\@writefile{toc}{\contentsline {subsection}{\numberline {3.2.5}Views}{56}{subsection.3.2.5}}
\@writefile{toc}{\defcounter {refsection}{0}\relax }\@writefile{toc}{\contentsline {subsection}{\numberline {3.2.6}Repository}{56}{subsection.3.2.6}}
\newlabel{repository}{{3.7}{57}{Příklad rozšíření třídy EntityRepository}{lstlisting.3.7}{}}
\@writefile{lol}{\defcounter {refsection}{0}\relax }\@writefile{lol}{\contentsline {lstlisting}{\numberline {3.7}P\IeC {\v r}\IeC {\'\i }klad roz\IeC {\v s}\IeC {\'\i }\IeC {\v r}en\IeC {\'\i } t\IeC {\v r}\IeC {\'\i }dy EntityRepository}{57}{lstlisting.3.7}}
\@writefile{toc}{\defcounter {refsection}{0}\relax }\@writefile{toc}{\contentsline {subsection}{\numberline {3.2.7}Formul\IeC {\'a}\IeC {\v r}e}{57}{subsection.3.2.7}}
\newlabel{lst:form}{{3.8}{58}{Příklad vytvoření a~zpracování formuláře}{lstlisting.3.8}{}}
\@writefile{lol}{\defcounter {refsection}{0}\relax }\@writefile{lol}{\contentsline {lstlisting}{\numberline {3.8}P\IeC {\v r}\IeC {\'\i }klad vytvo\IeC {\v r}en\IeC {\'\i } a~zpracov\IeC {\'a}n\IeC {\'\i } formul\IeC {\'a}\IeC {\v r}e}{58}{lstlisting.3.8}}
\@writefile{toc}{\defcounter {refsection}{0}\relax }\@writefile{toc}{\contentsline {subsection}{\numberline {3.2.8}Princip Repository, Functionality, Operation}{58}{subsection.3.2.8}}
\@writefile{toc}{\defcounter {refsection}{0}\relax }\@writefile{toc}{\contentsline {subsection}{\numberline {3.2.9}Autorizace a~autentizace}{59}{subsection.3.2.9}}
\@writefile{toc}{\defcounter {refsection}{0}\relax }\@writefile{toc}{\contentsline {subsection}{\numberline {3.2.10}Adres\IeC {\'a}\IeC {\v r}ov\IeC {\'a} struktura modulu}{60}{subsection.3.2.10}}
\@writefile{lof}{\defcounter {refsection}{0}\relax }\@writefile{lof}{\contentsline {figure}{\numberline {3.5}{\ignorespaces Pou\IeC {\v z}it\IeC {\'a} adres\IeC {\'a}\IeC {\v r}ov\IeC {\'a} struktura}}{60}{figure.3.5}}
\newlabel{adresar:bundle}{{3.5}{60}{Použitá adresářová struktura}{figure.3.5}{}}
\@writefile{toc}{\defcounter {refsection}{0}\relax }\@writefile{toc}{\contentsline {section}{\numberline {3.3}Integrace modulu do informa\IeC {\v c}n\IeC {\'\i }ho syst\IeC {\'e}mu \IeC {\v s}koly}{61}{section.3.3}}
\@writefile{toc}{\defcounter {refsection}{0}\relax }\@writefile{toc}{\contentsline {subsection}{\numberline {3.3.1}Integrace modulu}{61}{subsection.3.3.1}}
\newlabel{lst:integr_kernel}{{3.9}{61}{Zaregistrování modulu jako bundlu v~AppKernelu}{lstlisting.3.9}{}}
\@writefile{lol}{\defcounter {refsection}{0}\relax }\@writefile{lol}{\contentsline {lstlisting}{\numberline {3.9}Zaregistrov\IeC {\'a}n\IeC {\'\i } modulu jako bundlu v~AppKernelu}{61}{lstlisting.3.9}}
\newlabel{lst:integr_composer}{{3.10}{61}{Zaregistrování modulu pro composer}{lstlisting.3.10}{}}
\@writefile{lol}{\defcounter {refsection}{0}\relax }\@writefile{lol}{\contentsline {lstlisting}{\numberline {3.10}Zaregistrov\IeC {\'a}n\IeC {\'\i } modulu pro composer}{61}{lstlisting.3.10}}
\newlabel{lst:integr_config}{{3.11}{62}{Import konfigurace bundlu}{lstlisting.3.11}{}}
\@writefile{lol}{\defcounter {refsection}{0}\relax }\@writefile{lol}{\contentsline {lstlisting}{\numberline {3.11}Import konfigurace bundlu}{62}{lstlisting.3.11}}
\newlabel{lst:integr_routing}{{3.12}{62}{Konfigurace routování}{lstlisting.3.12}{}}
\@writefile{lol}{\defcounter {refsection}{0}\relax }\@writefile{lol}{\contentsline {lstlisting}{\numberline {3.12}Konfigurace routov\IeC {\'a}n\IeC {\'\i }}{62}{lstlisting.3.12}}
\newlabel{lst:integr_kernel}{{3.13}{62}{Konfigurace přihlašování studentů}{lstlisting.3.13}{}}
\@writefile{lol}{\defcounter {refsection}{0}\relax }\@writefile{lol}{\contentsline {lstlisting}{\numberline {3.13}Konfigurace p\IeC {\v r}ihla\IeC {\v s}ov\IeC {\'a}n\IeC {\'\i } student\IeC {\r u}}{62}{lstlisting.3.13}}
\@writefile{toc}{\defcounter {refsection}{0}\relax }\@writefile{toc}{\contentsline {subsection}{\numberline {3.3.2}Nasazen\IeC {\'\i }}{63}{subsection.3.3.2}}
\@writefile{toc}{\defcounter {refsection}{0}\relax }\@writefile{toc}{\contentsline {section}{\numberline {3.4}Bezpe\IeC {\v c}nost}{64}{section.3.4}}
\@writefile{lof}{\defcounter {refsection}{0}\relax }\@writefile{lof}{\contentsline {figure}{\numberline {3.6}{\ignorespaces \IeC {\v Z}eb\IeC {\v r}\IeC {\'\i }\IeC {\v c}ek TOP 10 dle OWASP pro roky 2013 a~2017}}{64}{figure.3.6}}
\newlabel{img:owasp}{{3.6}{64}{Žebříček TOP 10 dle OWASP pro roky 2013 a~2017}{figure.3.6}{}}
\@writefile{toc}{\defcounter {refsection}{0}\relax }\@writefile{toc}{\contentsline {subsubsection}{\numberline {3.4.0.1}XSS}{65}{subsubsection.3.4.0.1}}
\@writefile{toc}{\defcounter {refsection}{0}\relax }\@writefile{toc}{\contentsline {subsubsection}{\numberline {3.4.0.2}CSRF}{65}{subsubsection.3.4.0.2}}
\newlabel{manytoone}{{3.14}{65}{Vygenerovaný CSRF token}{lstlisting.3.14}{}}
\@writefile{lol}{\defcounter {refsection}{0}\relax }\@writefile{lol}{\contentsline {lstlisting}{\numberline {3.14}Vygenerovan\IeC {\'y} CSRF token}{65}{lstlisting.3.14}}
\@writefile{toc}{\defcounter {refsection}{0}\relax }\@writefile{toc}{\contentsline {subsubsection}{\numberline {3.4.0.3}Injection}{66}{subsubsection.3.4.0.3}}
\@writefile{toc}{\defcounter {refsection}{0}\relax }\@writefile{toc}{\contentsline {subsection}{\numberline {3.4.1}Validace formul\IeC {\'a}\IeC {\v r}\IeC {\r u}}{66}{subsection.3.4.1}}
\@setckpt{implementace}{
\setcounter{page}{67}
\setcounter{equation}{0}
\setcounter{enumi}{0}
\setcounter{enumii}{0}
\setcounter{enumiii}{0}
\setcounter{enumiv}{0}
\setcounter{footnote}{34}
\setcounter{mpfootnote}{0}
\setcounter{@memmarkcntra}{0}
\setcounter{storedpagenumber}{1}
\setcounter{book}{0}
\setcounter{part}{0}
\setcounter{chapter}{3}
\setcounter{section}{4}
\setcounter{subsection}{1}
\setcounter{subsubsection}{0}
\setcounter{paragraph}{0}
\setcounter{subparagraph}{0}
\setcounter{@ppsavesec}{0}
\setcounter{@ppsaveapp}{0}
\setcounter{vslineno}{0}
\setcounter{poemline}{0}
\setcounter{modulo@vs}{0}
\setcounter{memfvsline}{0}
\setcounter{verse}{0}
\setcounter{chrsinstr}{0}
\setcounter{poem}{0}
\setcounter{newflo@tctr}{4}
\setcounter{@contsubnum}{0}
\setcounter{maxsecnumdepth}{3}
\setcounter{sidefootnote}{0}
\setcounter{pagenote}{0}
\setcounter{pagenoteshadow}{0}
\setcounter{memfbvline}{0}
\setcounter{bvlinectr}{0}
\setcounter{cp@cntr}{0}
\setcounter{ism@mctr}{0}
\setcounter{xsm@mctr}{0}
\setcounter{csm@mctr}{0}
\setcounter{ksm@mctr}{0}
\setcounter{xksm@mctr}{0}
\setcounter{cksm@mctr}{0}
\setcounter{msm@mctr}{0}
\setcounter{xmsm@mctr}{0}
\setcounter{cmsm@mctr}{0}
\setcounter{bsm@mctr}{0}
\setcounter{workm@mctr}{0}
\setcounter{sheetsequence}{83}
\setcounter{lastsheet}{99}
\setcounter{lastpage}{83}
\setcounter{figure}{6}
\setcounter{lofdepth}{1}
\setcounter{table}{0}
\setcounter{lotdepth}{1}
\setcounter{Item}{0}
\setcounter{Hfootnote}{34}
\setcounter{memhycontfloat}{0}
\setcounter{Hpagenote}{0}
\setcounter{bookmark@seq@number}{0}
\setcounter{@todonotes@numberoftodonotes}{0}
\setcounter{svg@param@lastpage}{0}
\setcounter{svg@param@currpage}{-1}
\setcounter{tabx@nest}{0}
\setcounter{listtotal}{0}
\setcounter{listcount}{0}
\setcounter{liststart}{0}
\setcounter{liststop}{0}
\setcounter{citecount}{0}
\setcounter{citetotal}{0}
\setcounter{multicitecount}{0}
\setcounter{multicitetotal}{0}
\setcounter{instcount}{69}
\setcounter{maxnames}{9}
\setcounter{minnames}{1}
\setcounter{maxitems}{3}
\setcounter{minitems}{1}
\setcounter{citecounter}{0}
\setcounter{savedcitecounter}{0}
\setcounter{uniquelist}{0}
\setcounter{uniquename}{0}
\setcounter{refsection}{0}
\setcounter{refsegment}{0}
\setcounter{maxextratitle}{0}
\setcounter{maxextratitleyear}{0}
\setcounter{maxextrayear}{0}
\setcounter{maxextraalpha}{0}
\setcounter{abbrvpenalty}{50}
\setcounter{highnamepenalty}{50}
\setcounter{lownamepenalty}{25}
\setcounter{maxparens}{3}
\setcounter{parenlevel}{0}
\setcounter{mincomprange}{10}
\setcounter{maxcomprange}{100000}
\setcounter{mincompwidth}{1}
\setcounter{afterword}{0}
\setcounter{savedafterword}{0}
\setcounter{annotator}{0}
\setcounter{savedannotator}{0}
\setcounter{author}{0}
\setcounter{savedauthor}{0}
\setcounter{bookauthor}{0}
\setcounter{savedbookauthor}{0}
\setcounter{commentator}{0}
\setcounter{savedcommentator}{0}
\setcounter{editor}{0}
\setcounter{savededitor}{0}
\setcounter{editora}{0}
\setcounter{savededitora}{0}
\setcounter{editorb}{0}
\setcounter{savededitorb}{0}
\setcounter{editorc}{0}
\setcounter{savededitorc}{0}
\setcounter{foreword}{0}
\setcounter{savedforeword}{0}
\setcounter{holder}{0}
\setcounter{savedholder}{0}
\setcounter{introduction}{0}
\setcounter{savedintroduction}{0}
\setcounter{namea}{0}
\setcounter{savednamea}{0}
\setcounter{nameb}{0}
\setcounter{savednameb}{0}
\setcounter{namec}{0}
\setcounter{savednamec}{0}
\setcounter{translator}{0}
\setcounter{savedtranslator}{0}
\setcounter{shortauthor}{0}
\setcounter{savedshortauthor}{0}
\setcounter{shorteditor}{0}
\setcounter{savedshorteditor}{0}
\setcounter{supervisor}{0}
\setcounter{savedsupervisor}{0}
\setcounter{labelname}{0}
\setcounter{savedlabelname}{0}
\setcounter{institution}{0}
\setcounter{savedinstitution}{0}
\setcounter{lista}{0}
\setcounter{savedlista}{0}
\setcounter{listb}{0}
\setcounter{savedlistb}{0}
\setcounter{listc}{0}
\setcounter{savedlistc}{0}
\setcounter{listd}{0}
\setcounter{savedlistd}{0}
\setcounter{liste}{0}
\setcounter{savedliste}{0}
\setcounter{listf}{0}
\setcounter{savedlistf}{0}
\setcounter{location}{0}
\setcounter{savedlocation}{0}
\setcounter{organization}{0}
\setcounter{savedorganization}{0}
\setcounter{origlocation}{0}
\setcounter{savedoriglocation}{0}
\setcounter{origpublisher}{0}
\setcounter{savedorigpublisher}{0}
\setcounter{publisher}{0}
\setcounter{savedpublisher}{0}
\setcounter{language}{0}
\setcounter{savedlanguage}{0}
\setcounter{pageref}{0}
\setcounter{savedpageref}{0}
\setcounter{textcitecount}{0}
\setcounter{textcitetotal}{0}
\setcounter{textcitemaxnames}{0}
\setcounter{biburlnumpenalty}{0}
\setcounter{biburlucpenalty}{0}
\setcounter{biburllcpenalty}{0}
\setcounter{smartand}{1}
\setcounter{AM@survey}{0}
\setcounter{lstnumber}{6}
\setcounter{loldepth}{1}
\setcounter{section@level}{0}
\setcounter{lstlisting}{14}
}
