[4] Config.pm:354> INFO - This is Biber 2.7 (beta)
[6] Config.pm:357> INFO - Logfile is 'main.blg'
[174] biber:303> INFO - === Pá kvě 11, 2018, 09:11:46
[281] Biber.pm:360> INFO - Reading 'main.bcf'
[588] Biber.pm:836> INFO - Found 43 citekeys in bib section 0
[650] Biber.pm:3671> INFO - Processing section 0
[729] Biber.pm:3841> INFO - Looking for bibtex format file 'ref.bib' for section 0
[746] bibtex.pm:1424> INFO - Decoding LaTeX character macros into UTF-8
[785] bibtex.pm:1281> INFO - Found BibTeX data source 'ref.bib'
[1596] UCollate.pm:68> INFO - Overriding locale 'cs-CZ' defaults 'variable = shifted' with 'variable = non-ignorable'
[1598] UCollate.pm:68> INFO - Overriding locale 'cs-CZ' defaults 'normalization = NFD' with 'normalization = prenormalized'
[1599] Biber.pm:3500> INFO - Sorting list 'none/global/' of type 'entry' with scheme 'none' and locale 'cs-CZ'
[1753] bbl.pm:608> INFO - Writing 'main.bbl' with encoding 'UTF-8'
[1776] bbl.pm:712> INFO - Output to main.bbl
