\relax 
\providecommand\hyper@newdestlabel[2]{}
\providecommand\BKM@entry[2]{}
\providecommand{\transparent@use}[1]{}
\providecommand*{\memsetcounter}[2]{}
\catcode `"\active 
\catcode `-\active 
\providecommand\HyperFirstAtBeginDocument{\AtBeginDocument}
\HyperFirstAtBeginDocument{\ifx\hyper@anchor\@undefined
\global\let\oldcontentsline\contentsline
\gdef\contentsline#1#2#3#4{\oldcontentsline{#1}{#2}{#3}}
\global\let\oldnewlabel\newlabel
\gdef\newlabel#1#2{\newlabelxx{#1}#2}
\gdef\newlabelxx#1#2#3#4#5#6{\oldnewlabel{#1}{{#2}{#3}}}
\AtEndDocument{\ifx\hyper@anchor\@undefined
\let\contentsline\oldcontentsline
\let\newlabel\oldnewlabel
\fi}
\fi}
\global\let\hyper@last\relax 
\gdef\HyperFirstAtBeginDocument#1{#1}
\providecommand\HyField@AuxAddToFields[1]{}
\providecommand\HyField@AuxAddToCoFields[2]{}
\abx@aux@sortscheme{none}
\abx@aux@refcontext{none/global/}
\@writefile{toc}{\boolfalse {citerequest}\boolfalse {citetracker}\boolfalse {pagetracker}\boolfalse {backtracker}\relax }
\@writefile{lof}{\boolfalse {citerequest}\boolfalse {citetracker}\boolfalse {pagetracker}\boolfalse {backtracker}\relax }
\@writefile{lot}{\boolfalse {citerequest}\boolfalse {citetracker}\boolfalse {pagetracker}\boolfalse {backtracker}\relax }
\select@language{czech}
\@writefile{toc}{\defcounter {refsection}{0}\relax }\@writefile{toc}{\select@language{czech}}
\@writefile{lof}{\defcounter {refsection}{0}\relax }\@writefile{lof}{\select@language{czech}}
\@writefile{lot}{\defcounter {refsection}{0}\relax }\@writefile{lot}{\select@language{czech}}
\select@language{czech}
\@writefile{toc}{\defcounter {refsection}{0}\relax }\@writefile{toc}{\select@language{czech}}
\@writefile{lof}{\defcounter {refsection}{0}\relax }\@writefile{lof}{\select@language{czech}}
\@writefile{lot}{\defcounter {refsection}{0}\relax }\@writefile{lot}{\select@language{czech}}
\abx@aux@cite{trbola}
\abx@aux@segm{0}{0}{trbola}
\@writefile{toc}{\defcounter {refsection}{0}\relax }\@writefile{toc}{\contentsline {subsection}{Odkaz na tuto pr{\' a}ci}{vi}{section*.1}}
\@input{uvod.aux}
\BKM@entry{id=1,dest={636861707465722A2E35},srcline={1}}{5C3337365C3337375C3030305C3333325C303030765C3030306F5C30303064}
\@input{analyza.aux}
\BKM@entry{id=2,dest={636861707465722E31},srcline={1}}{5C3337365C3337375C303030525C303030655C3030315C3134315C303030655C303030725C3030315C3134315C3030306E5C3030305C3335355C3030305C3034305C3030315C3031355C3030305C3334315C303030735C30303074}
\BKM@entry{id=3,dest={73656374696F6E2E312E31},srcline={4}}{5C3337365C3337375C303030535C3030306F5C303030755C3030315C3031355C303030615C303030735C3030306E5C3030305C3337355C3030305C3034305C303030735C303030745C303030615C30303076}
\abx@aux@segm{0}{0}{trbola}
\BKM@entry{id=4,dest={73656374696F6E2E312E32},srcline={29}}{5C3337365C3337375C303030455C303030785C303030695C303030735C303030745C303030755C3030306A5C3030305C3335355C303030635C3030305C3335355C3030305C3034305C3030315C3133315C303030655C3030315C3134315C303030655C3030306E5C3030305C333535}
\abx@aux@cite{rvp_clanek}
\abx@aux@segm{0}{0}{rvp_clanek}
\abx@aux@cite{csi_vz}
\abx@aux@segm{0}{0}{csi_vz}
\abx@aux@segm{0}{0}{csi_vz}
\abx@aux@segm{0}{0}{csi_vz}
\abx@aux@segm{0}{0}{csi_vz}
\abx@aux@segm{0}{0}{csi_vz}
\abx@aux@cite{bakalari}
\abx@aux@segm{0}{0}{bakalari}
\abx@aux@cite{skolaonline_uvod}
\abx@aux@segm{0}{0}{skolaonline_uvod}
\BKM@entry{id=5,dest={636861707465722E32},srcline={93}}{5C3337365C3337375C303030415C3030306E5C303030615C3030306C5C3030305C3337355C3030307A5C303030615C3030305C3034305C303030615C3030305C3034305C3030306E5C3030305C3334315C303030765C303030725C30303068}
\BKM@entry{id=6,dest={73656374696F6E2E322E31},srcline={94}}{5C3337365C3337375C303030465C303030755C3030306E5C3030306B5C3030315C3031355C3030306E5C3030305C3335355C3030305C3034305C303030705C3030306F5C3030315C3137365C303030615C303030645C303030615C303030765C3030306B5C30303079}
\abx@aux@segm{0}{0}{trbola}
\BKM@entry{id=7,dest={73656374696F6E2E322E32},srcline={157}}{5C3337365C3337375C3030304E5C303030655C303030665C303030755C3030306E5C3030306B5C3030315C3031355C3030306E5C3030305C3335355C3030305C3034305C303030705C3030306F5C3030315C3137365C303030615C303030645C303030615C303030765C3030306B5C30303079}
\BKM@entry{id=8,dest={73656374696F6E2E322E33},srcline={188}}{5C3337365C3337375C303030555C3030315C3137365C303030695C303030765C303030615C303030745C303030655C3030306C5C303030735C3030306B5C3030305C3335315C3030305C3034305C303030725C3030306F5C3030306C5C30303065}
\@input{navrh.aux}
\BKM@entry{id=9,dest={73656374696F6E2E322E34},srcline={1}}{5C3337365C3337375C303030505C3030315C3133315C3030305C3335355C303030705C303030615C303030645C303030795C3030305C3034305C303030755C3030315C3137365C303030695C303030745C3030305C333535}
\BKM@entry{id=10,dest={73656374696F6E2E322E35},srcline={117}}{5C3337365C3337375C303030445C303030615C303030745C303030615C303030625C3030305C3334315C3030307A5C3030306F5C303030765C3030305C3335315C3030305C3034305C303030735C303030635C303030685C3030305C3335315C3030306D5C30303061}
\BKM@entry{id=11,dest={73656374696F6E2E322E36},srcline={286}}{5C3337365C3337375C3030304E5C3030305C3334315C303030765C303030725C303030685C3030305C3034305C303030675C303030725C303030615C303030665C303030695C303030635C3030306B5C3030305C3335315C303030685C3030306F5C3030305C3034305C303030755C3030315C3137365C303030695C303030765C303030615C303030745C303030655C3030306C5C303030735C3030306B5C3030305C3335315C303030685C3030306F5C3030305C3034305C303030725C3030306F5C3030307A5C303030685C303030725C303030615C3030306E5C3030305C333535}
\abx@aux@cite{wireframe}
\abx@aux@segm{0}{0}{wireframe}
\@input{implementace.aux}
\BKM@entry{id=12,dest={636861707465722E33},srcline={1}}{5C3337365C3337375C303030495C3030306D5C303030705C3030306C5C303030655C3030306D5C303030655C3030306E5C303030745C303030615C303030635C30303065}
\BKM@entry{id=13,dest={73656374696F6E2E332E31},srcline={4}}{5C3337365C3337375C303030505C3030306F5C303030755C3030315C3137365C303030695C303030745C3030305C3335315C3030305C3034305C303030745C303030655C303030635C303030685C3030306E5C3030306F5C3030306C5C3030306F5C303030675C303030695C30303065}
\abx@aux@cite{what_is_symfony}
\abx@aux@segm{0}{0}{what_is_symfony}
\abx@aux@segm{0}{0}{what_is_symfony}
\abx@aux@cite{bestbundles}
\abx@aux@segm{0}{0}{bestbundles}
\abx@aux@cite{mvc_itnetwork}
\abx@aux@segm{0}{0}{mvc_itnetwork}
\abx@aux@segm{0}{0}{mvc_itnetwork}
\abx@aux@segm{0}{0}{mvc_itnetwork}
\abx@aux@cite{sf_doc_com}
\abx@aux@segm{0}{0}{sf_doc_com}
\abx@aux@cite{sf_console}
\abx@aux@segm{0}{0}{sf_console}
\abx@aux@segm{0}{0}{bestbundles}
\abx@aux@cite{sf_doc_bundle_system}
\abx@aux@segm{0}{0}{sf_doc_bundle_system}
\abx@aux@segm{0}{0}{what_is_symfony}
\abx@aux@cite{sf_doc_request}
\abx@aux@segm{0}{0}{sf_doc_request}
\abx@aux@segm{0}{0}{sf_doc_request}
\abx@aux@cite{sf_zdrojak_routing}
\abx@aux@segm{0}{0}{sf_zdrojak_routing}
\abx@aux@cite{sf_doc_cache}
\abx@aux@segm{0}{0}{sf_doc_cache}
\abx@aux@cite{html_w3c}
\abx@aux@segm{0}{0}{html_w3c}
\abx@aux@cite{html_w3c_support}
\abx@aux@segm{0}{0}{html_w3c_support}
\abx@aux@cite{book_tvorbawww}
\abx@aux@segm{0}{0}{book_tvorbawww}
\abx@aux@cite{css_w3c_support}
\abx@aux@segm{0}{0}{css_w3c_support}
\abx@aux@cite{css_news}
\abx@aux@segm{0}{0}{css_news}
\abx@aux@cite{book_php}
\abx@aux@segm{0}{0}{book_php}
\abx@aux@cite{linuxsoftphp}
\abx@aux@segm{0}{0}{linuxsoftphp}
\abx@aux@cite{phpstats}
\abx@aux@segm{0}{0}{phpstats}
\abx@aux@segm{0}{0}{book_tvorbawww}
\abx@aux@cite{nodejs}
\abx@aux@segm{0}{0}{nodejs}
\abx@aux@cite{jquery_stats}
\abx@aux@segm{0}{0}{jquery_stats}
\abx@aux@cite{bootstrap_stat}
\abx@aux@segm{0}{0}{bootstrap_stat}
\abx@aux@cite{twig_docu}
\abx@aux@segm{0}{0}{twig_docu}
\abx@aux@cite{zdrojak_doctrine}
\abx@aux@segm{0}{0}{zdrojak_doctrine}
\abx@aux@cite{mysql_stats}
\abx@aux@segm{0}{0}{mysql_stats}
\abx@aux@cite{composer}
\abx@aux@segm{0}{0}{composer}
\abx@aux@cite{doctrine_docu}
\abx@aux@segm{0}{0}{doctrine_docu}
\abx@aux@segm{0}{0}{doctrine_docu}
\BKM@entry{id=14,dest={73656374696F6E2E332E32},srcline={141}}{5C3337365C3337375C303030415C303030725C303030635C303030685C303030695C303030745C303030655C3030306B5C303030745C303030755C303030725C303030615C3030305C3034305C303030615C303030705C3030306C5C303030695C3030306B5C303030615C303030635C30303065}
\abx@aux@segm{0}{0}{bestbundles}
\abx@aux@cite{doctrine_sf_how}
\abx@aux@segm{0}{0}{doctrine_sf_how}
\abx@aux@segm{0}{0}{doctrine_sf_how}
\abx@aux@cite{sf_validation}
\abx@aux@segm{0}{0}{sf_validation}
\abx@aux@cite{doctrine_docu_vazby}
\abx@aux@segm{0}{0}{doctrine_docu_vazby}
\abx@aux@segm{0}{0}{doctrine_docu_vazby}
\abx@aux@segm{0}{0}{doctrine_docu_vazby}
\abx@aux@segm{0}{0}{doctrine_docu_vazby}
\abx@aux@cite{sf_best_practices}
\abx@aux@segm{0}{0}{sf_best_practices}
\abx@aux@segm{0}{0}{twig_docu}
\abx@aux@segm{0}{0}{what_is_symfony}
\abx@aux@segm{0}{0}{bestbundles}
\BKM@entry{id=15,dest={73656374696F6E2E332E33},srcline={419}}{5C3337365C3337375C303030495C3030306E5C303030745C303030655C303030675C303030725C303030615C303030635C303030655C3030305C3034305C3030306D5C3030306F5C303030645C303030755C3030306C5C303030755C3030305C3034305C303030645C3030306F5C3030305C3034305C303030695C3030306E5C303030665C3030306F5C303030725C3030306D5C303030615C3030315C3031355C3030306E5C3030305C3335355C303030685C3030306F5C3030305C3034305C303030735C303030795C303030735C303030745C3030305C3335315C3030306D5C303030755C3030305C3034305C3030315C3134315C3030306B5C3030306F5C3030306C5C30303079}
\BKM@entry{id=16,dest={73656374696F6E2E332E34},srcline={505}}{5C3337365C3337375C303030425C303030655C3030307A5C303030705C303030655C3030315C3031355C3030306E5C3030306F5C303030735C30303074}
\abx@aux@cite{owasp_zprava}
\abx@aux@segm{0}{0}{owasp_zprava}
\abx@aux@segm{0}{0}{owasp_zprava}
\abx@aux@segm{0}{0}{owasp_zprava}
\abx@aux@segm{0}{0}{owasp_zprava}
\abx@aux@cite{xss}
\abx@aux@segm{0}{0}{xss}
\abx@aux@cite{doctrine_security}
\abx@aux@segm{0}{0}{doctrine_security}
\abx@aux@cite{twig_sf_security}
\abx@aux@segm{0}{0}{twig_sf_security}
\abx@aux@cite{csrf_hackerlab}
\abx@aux@segm{0}{0}{csrf_hackerlab}
\abx@aux@segm{0}{0}{twig_sf_security}
\abx@aux@cite{injection_security}
\abx@aux@segm{0}{0}{injection_security}
\abx@aux@segm{0}{0}{doctrine_security}
\abx@aux@segm{0}{0}{doctrine_security}
\@input{testovani.aux}
\BKM@entry{id=17,dest={636861707465722E34},srcline={1}}{5C3337365C3337375C303030545C303030655C303030735C303030745C3030306F5C303030765C3030305C3334315C3030306E5C3030305C333535}
\BKM@entry{id=18,dest={73656374696F6E2E342E31},srcline={4}}{5C3337365C3337375C3030304A5C303030655C303030645C3030306E5C3030306F5C303030745C3030306B5C3030306F5C303030765C3030305C3335315C3030305C3034305C303030745C303030655C303030735C303030745C30303079}
\abx@aux@cite{testovani_zdrojak}
\abx@aux@segm{0}{0}{testovani_zdrojak}
\BKM@entry{id=19,dest={73656374696F6E2E342E32},srcline={33}}{5C3337365C3337375C303030495C3030306E5C303030745C303030655C303030675C303030725C303030615C3030315C3031355C3030306E5C3030305C3335355C3030305C3034305C303030745C303030655C303030735C303030745C30303079}
\abx@aux@segm{0}{0}{testovani_zdrojak}
\BKM@entry{id=20,dest={73656374696F6E2E342E33},srcline={74}}{5C3337365C3337375C303030485C303030655C303030755C303030725C303030695C303030735C303030745C303030695C303030635C3030306B5C3030305C3334315C3030305C3034305C303030615C3030306E5C303030615C3030306C5C3030305C3337355C3030307A5C30303061}
\abx@aux@cite{testovani_heur}
\abx@aux@segm{0}{0}{testovani_heur}
\abx@aux@segm{0}{0}{testovani_heur}
\BKM@entry{id=21,dest={73656374696F6E2E342E34},srcline={102}}{5C3337365C3337375C303030555C3030315C3137365C303030695C303030765C303030615C303030745C303030655C3030306C5C303030735C3030306B5C3030305C3335315C3030305C3034305C303030745C303030655C303030735C303030745C3030306F5C303030765C3030305C3334315C3030306E5C3030305C333535}
\@input{zaver.aux}
\BKM@entry{id=22,dest={636861707465722A2E3134},srcline={1}}{5C3337365C3337375C3030305A5C3030305C3334315C303030765C3030315C3033335C30303072}
\BKM@entry{id=23,dest={73656374696F6E2A2E3136},srcline={102}}{5C3337365C3337375C303030425C303030695C303030625C3030306C5C303030695C3030306F5C303030675C303030725C303030615C303030665C303030695C30303065}
\@writefile{toc}{\defcounter {refsection}{0}\relax }\@writefile{toc}{\contentsline {chapter}{Bibliografie}{77}{section*.16}}
\BKM@entry{id=24,dest={617070656E6469782E41},srcline={105}}{5C3337365C3337375C303030535C303030655C3030307A5C3030306E5C303030615C3030306D5C3030305C3034305C303030705C3030306F5C303030755C3030315C3137365C303030695C303030745C3030305C3337355C303030635C303030685C3030305C3034305C3030307A5C3030306B5C303030725C303030615C303030745C303030655C3030306B}
\@writefile{lof}{\defcounter {refsection}{0}\relax }\@writefile{lof}{\addvspace {10pt}}
\@writefile{lot}{\defcounter {refsection}{0}\relax }\@writefile{lot}{\addvspace {10pt}}
\@writefile{toc}{\defcounter {refsection}{0}\relax }\@writefile{toc}{\contentsline {appendix}{\chapternumberline {A}Seznam pou\IeC {\v z}it\IeC {\'y}ch zkratek}{81}{appendix.A}}
\BKM@entry{id=25,dest={617070656E6469782E42},srcline={127}}{5C3337365C3337375C3030304F5C303030625C303030735C303030615C303030685C3030305C3034305C303030705C3030315C3133315C303030695C3030306C5C3030306F5C3030315C3137365C303030655C3030306E5C3030305C3335315C303030685C3030306F5C3030305C3034305C303030435C30303044}
\abx@aux@refcontextdefaultsdone
\abx@aux@defaultrefcontext{0}{trbola}{none/global/}
\abx@aux@defaultrefcontext{0}{rvp_clanek}{none/global/}
\abx@aux@defaultrefcontext{0}{csi_vz}{none/global/}
\abx@aux@defaultrefcontext{0}{bakalari}{none/global/}
\abx@aux@defaultrefcontext{0}{skolaonline_uvod}{none/global/}
\abx@aux@defaultrefcontext{0}{wireframe}{none/global/}
\abx@aux@defaultrefcontext{0}{what_is_symfony}{none/global/}
\abx@aux@defaultrefcontext{0}{bestbundles}{none/global/}
\abx@aux@defaultrefcontext{0}{mvc_itnetwork}{none/global/}
\abx@aux@defaultrefcontext{0}{sf_doc_com}{none/global/}
\abx@aux@defaultrefcontext{0}{sf_console}{none/global/}
\abx@aux@defaultrefcontext{0}{sf_doc_bundle_system}{none/global/}
\abx@aux@defaultrefcontext{0}{sf_doc_request}{none/global/}
\abx@aux@defaultrefcontext{0}{sf_zdrojak_routing}{none/global/}
\abx@aux@defaultrefcontext{0}{sf_doc_cache}{none/global/}
\abx@aux@defaultrefcontext{0}{html_w3c}{none/global/}
\abx@aux@defaultrefcontext{0}{html_w3c_support}{none/global/}
\abx@aux@defaultrefcontext{0}{book_tvorbawww}{none/global/}
\abx@aux@defaultrefcontext{0}{css_w3c_support}{none/global/}
\abx@aux@defaultrefcontext{0}{css_news}{none/global/}
\abx@aux@defaultrefcontext{0}{book_php}{none/global/}
\abx@aux@defaultrefcontext{0}{linuxsoftphp}{none/global/}
\abx@aux@defaultrefcontext{0}{phpstats}{none/global/}
\abx@aux@defaultrefcontext{0}{nodejs}{none/global/}
\abx@aux@defaultrefcontext{0}{jquery_stats}{none/global/}
\abx@aux@defaultrefcontext{0}{bootstrap_stat}{none/global/}
\abx@aux@defaultrefcontext{0}{twig_docu}{none/global/}
\abx@aux@defaultrefcontext{0}{zdrojak_doctrine}{none/global/}
\abx@aux@defaultrefcontext{0}{mysql_stats}{none/global/}
\abx@aux@defaultrefcontext{0}{composer}{none/global/}
\abx@aux@defaultrefcontext{0}{doctrine_docu}{none/global/}
\abx@aux@defaultrefcontext{0}{doctrine_sf_how}{none/global/}
\abx@aux@defaultrefcontext{0}{sf_validation}{none/global/}
\abx@aux@defaultrefcontext{0}{doctrine_docu_vazby}{none/global/}
\abx@aux@defaultrefcontext{0}{sf_best_practices}{none/global/}
\abx@aux@defaultrefcontext{0}{owasp_zprava}{none/global/}
\abx@aux@defaultrefcontext{0}{xss}{none/global/}
\abx@aux@defaultrefcontext{0}{doctrine_security}{none/global/}
\abx@aux@defaultrefcontext{0}{twig_sf_security}{none/global/}
\abx@aux@defaultrefcontext{0}{csrf_hackerlab}{none/global/}
\abx@aux@defaultrefcontext{0}{injection_security}{none/global/}
\abx@aux@defaultrefcontext{0}{testovani_zdrojak}{none/global/}
\abx@aux@defaultrefcontext{0}{testovani_heur}{none/global/}
\@writefile{lof}{\defcounter {refsection}{0}\relax }\@writefile{lof}{\addvspace {10pt}}
\@writefile{lot}{\defcounter {refsection}{0}\relax }\@writefile{lot}{\addvspace {10pt}}
\@writefile{toc}{\defcounter {refsection}{0}\relax }\@writefile{toc}{\contentsline {appendix}{\chapternumberline {B}Obsah p\IeC {\v r}ilo\IeC {\v z}en\IeC {\'e}ho CD}{83}{appendix.B}}
\newlabel{chap:cd}{{B}{83}{Obsah přiloženého CD}{appendix.B}{}}
\memsetcounter{lastsheet}{99}
\memsetcounter{lastpage}{83}
