\relax 
\providecommand\hyper@newdestlabel[2]{}
\providecommand{\transparent@use}[1]{}
\@writefile{toc}{\defcounter {refsection}{0}\relax }\@writefile{toc}{\contentsline {section}{\numberline {2.4}P\IeC {\v r}\IeC {\'\i }pady u\IeC {\v z}it\IeC {\'\i }}{15}{section.2.4}}
\@writefile{lof}{\defcounter {refsection}{0}\relax }\@writefile{lof}{\contentsline {figure}{\numberline {2.1}{\ignorespaces P\IeC {\v r}\IeC {\'\i }pady u\IeC {\v z}it\IeC {\'\i } modulu pro tvorbu \IeC {\'u}vazk\IeC {\r u} a~v\IeC {\'y}b\IeC {\v e}r voliteln\IeC {\'y}ch p\IeC {\v r}edm\IeC {\v e}t\IeC {\r u}}}{15}{figure.2.1}}
\newlabel{img:uc:main}{{2.1}{15}{Případy užití modulu pro tvorbu úvazků a~výběr volitelných předmětů}{figure.2.1}{}}
\@writefile{toc}{\defcounter {refsection}{0}\relax }\@writefile{toc}{\contentsline {subsection}{\numberline {2.4.1}Z\IeC {\'a}pis voliteln\IeC {\'y}ch p\IeC {\v r}edm\IeC {\v e}t\IeC {\r u} \ref  {img:uc:zapis}}{15}{subsection.2.4.1}}
\@writefile{lof}{\defcounter {refsection}{0}\relax }\@writefile{lof}{\contentsline {figure}{\numberline {2.2}{\ignorespaces P\IeC {\v r}\IeC {\'\i }pady u\IeC {\v z}it\IeC {\'\i }: Z\IeC {\'a}pis p\IeC {\v r}edm\IeC {\v e}t\IeC {\r u}}}{16}{figure.2.2}}
\newlabel{img:uc:zapis}{{2.2}{16}{Případy užití: Zápis předmětů}{figure.2.2}{}}
\@writefile{toc}{\defcounter {refsection}{0}\relax }\@writefile{toc}{\contentsline {subsubsection}{\numberline {2.4.1.1}Spr\IeC {\'a}va z\IeC {\'a}pis\IeC {\r u} \ref  {img:uc:sprava_zapisu}}{16}{subsubsection.2.4.1.1}}
\@writefile{toc}{\defcounter {refsection}{0}\relax }\@writefile{toc}{\contentsline {subsubsection}{\numberline {2.4.1.2}V\IeC {\'y}b\IeC {\v e}r p\IeC {\v r}edm\IeC {\v e}t\IeC {\r u} \ref  {img:uc:vyber_predmetu}}{17}{subsubsection.2.4.1.2}}
\@writefile{lof}{\defcounter {refsection}{0}\relax }\@writefile{lof}{\contentsline {figure}{\numberline {2.3}{\ignorespaces P\IeC {\v r}\IeC {\'\i }pady u\IeC {\v z}it\IeC {\'\i }: spr\IeC {\'a}va z\IeC {\'a}pis\IeC {\r u}}}{18}{figure.2.3}}
\newlabel{img:uc:sprava_zapisu}{{2.3}{18}{Případy užití: správa zápisů}{figure.2.3}{}}
\@writefile{toc}{\defcounter {refsection}{0}\relax }\@writefile{toc}{\contentsline {subsubsection}{\numberline {2.4.1.3}Vyhodnocen\IeC {\'\i } z\IeC {\'a}pisu \ref  {img:uc:vyhodnoceni}}{18}{subsubsection.2.4.1.3}}
\@writefile{lof}{\defcounter {refsection}{0}\relax }\@writefile{lof}{\contentsline {figure}{\numberline {2.4}{\ignorespaces P\IeC {\v r}\IeC {\'\i }pady u\IeC {\v z}it\IeC {\'\i }: v\IeC {\'y}b\IeC {\v e}r p\IeC {\v r}edm\IeC {\v e}t\IeC {\r u}}}{19}{figure.2.4}}
\newlabel{img:uc:vyber_predmetu}{{2.4}{19}{Případy užití: výběr předmětů}{figure.2.4}{}}
\@writefile{lof}{\defcounter {refsection}{0}\relax }\@writefile{lof}{\contentsline {figure}{\numberline {2.5}{\ignorespaces P\IeC {\v r}\IeC {\'\i }pady u\IeC {\v z}it\IeC {\'\i }: vyhodnocen\IeC {\'\i } z\IeC {\'a}pisu}}{20}{figure.2.5}}
\newlabel{img:uc:vyhodnoceni}{{2.5}{20}{Případy užití: vyhodnocení zápisu}{figure.2.5}{}}
\@writefile{toc}{\defcounter {refsection}{0}\relax }\@writefile{toc}{\contentsline {subsection}{\numberline {2.4.2}Tvorba \IeC {\'u}vazk\IeC {\r u} \ref  {img:uc:uvazky}}{20}{subsection.2.4.2}}
\@writefile{lof}{\defcounter {refsection}{0}\relax }\@writefile{lof}{\contentsline {figure}{\numberline {2.6}{\ignorespaces P\IeC {\v r}\IeC {\'\i }pady u\IeC {\v z}it\IeC {\'\i }: tvorba \IeC {\'u}vazk\IeC {\r u}}}{21}{figure.2.6}}
\newlabel{img:uc:uvazky}{{2.6}{21}{Případy užití: tvorba úvazků}{figure.2.6}{}}
\@writefile{toc}{\defcounter {refsection}{0}\relax }\@writefile{toc}{\contentsline {subsection}{\numberline {2.4.3}Spr\IeC {\'a}va p\IeC {\v r}edm\IeC {\v e}t\IeC {\r u} \ref  {img:uc:sprava_predmetu}}{21}{subsection.2.4.3}}
\@writefile{lof}{\defcounter {refsection}{0}\relax }\@writefile{lof}{\contentsline {figure}{\numberline {2.7}{\ignorespaces P\IeC {\v r}\IeC {\'\i }pady u\IeC {\v z}it\IeC {\'\i }: spr\IeC {\'a}va p\IeC {\v r}edm\IeC {\v e}t\IeC {\r u}}}{22}{figure.2.7}}
\newlabel{img:uc:sprava_predmetu}{{2.7}{22}{Případy užití: správa předmětů}{figure.2.7}{}}
\@writefile{toc}{\defcounter {refsection}{0}\relax }\@writefile{toc}{\contentsline {subsection}{\numberline {2.4.4}Export dat \ref  {img:uc:export_dat}}{22}{subsection.2.4.4}}
\@writefile{lof}{\defcounter {refsection}{0}\relax }\@writefile{lof}{\contentsline {figure}{\numberline {2.8}{\ignorespaces P\IeC {\v r}\IeC {\'\i }pady u\IeC {\v z}it\IeC {\'\i }: export dat}}{23}{figure.2.8}}
\newlabel{img:uc:export_dat}{{2.8}{23}{Případy užití: export dat}{figure.2.8}{}}
\@writefile{toc}{\defcounter {refsection}{0}\relax }\@writefile{toc}{\contentsline {section}{\numberline {2.5}Datab\IeC {\'a}zov\IeC {\'e} sch\IeC {\'e}ma}{24}{section.2.5}}
\@writefile{lof}{\defcounter {refsection}{0}\relax }\@writefile{lof}{\contentsline {figure}{\numberline {2.9}{\ignorespaces Datab\IeC {\'a}zov\IeC {\'e} sch\IeC {\'e}ma modulu}}{29}{figure.2.9}}
\newlabel{img:navrh:db_model}{{2.9}{29}{Databázové schéma modulu}{figure.2.9}{}}
\@writefile{toc}{\defcounter {refsection}{0}\relax }\@writefile{toc}{\contentsline {section}{\numberline {2.6}N\IeC {\'a}vrh grafick\IeC {\'e}ho u\IeC {\v z}ivatelsk\IeC {\'e}ho rozhran\IeC {\'\i }}{30}{section.2.6}}
\@writefile{toc}{\defcounter {refsection}{0}\relax }\@writefile{toc}{\contentsline {subsection}{\numberline {2.6.1}P\IeC {\v r}ihl\IeC {\'a}\IeC {\v s}en\IeC {\'\i } studenta pro v\IeC {\'y}b\IeC {\v e}r volitel\IeC {\'y}ch p\IeC {\v r}edm\IeC {\v e}t\IeC {\r u}}{30}{subsection.2.6.1}}
\@writefile{toc}{\defcounter {refsection}{0}\relax }\@writefile{toc}{\contentsline {subsection}{\numberline {2.6.2}P\IeC {\v r}ehled z\IeC {\'a}pis\IeC {\r u} studenta}{30}{subsection.2.6.2}}
\@writefile{lof}{\defcounter {refsection}{0}\relax }\@writefile{lof}{\contentsline {figure}{\numberline {2.10}{\ignorespaces Wireframe p\IeC {\v r}ihl\IeC {\'a}\IeC {\v s}en\IeC {\'\i } studenta pro v\IeC {\'y}b\IeC {\v e}r volitel\IeC {\'y}ch p\IeC {\v r}edm\IeC {\v e}t\IeC {\r u}}}{31}{figure.2.10}}
\newlabel{img:obrazovka:login}{{2.10}{31}{Wireframe přihlášení studenta pro výběr volitelých předmětů}{figure.2.10}{}}
\@writefile{lof}{\defcounter {refsection}{0}\relax }\@writefile{lof}{\contentsline {figure}{\numberline {2.11}{\ignorespaces Wireframe s~p\IeC {\v r}ehledem z\IeC {\'a}pis\IeC {\r u} studenta}}{31}{figure.2.11}}
\newlabel{img:obrazovka:student_index}{{2.11}{31}{Wireframe s~přehledem zápisů studenta}{figure.2.11}{}}
\@writefile{lof}{\defcounter {refsection}{0}\relax }\@writefile{lof}{\contentsline {figure}{\numberline {2.12}{\ignorespaces Wireframe s~formul\IeC {\'a}\IeC {\v r}em pro v\IeC {\'y}b\IeC {\v e}r voliteln\IeC {\'y}ch p\IeC {\v r}edm\IeC {\v e}t\IeC {\r u}}}{32}{figure.2.12}}
\newlabel{img:obrazovka:student_odpoved}{{2.12}{32}{Wireframe s~formulářem pro výběr volitelných předmětů}{figure.2.12}{}}
\@writefile{toc}{\defcounter {refsection}{0}\relax }\@writefile{toc}{\contentsline {subsection}{\numberline {2.6.3}Vypln\IeC {\v e}n\IeC {\'\i } formul\IeC {\'a}\IeC {\v r}e z\IeC {\'a}pisu -- v\IeC {\'y}b\IeC {\v e}r p\IeC {\v r}edm\IeC {\v e}t\IeC {\r u}}{33}{subsection.2.6.3}}
\@writefile{lof}{\defcounter {refsection}{0}\relax }\@writefile{lof}{\contentsline {figure}{\numberline {2.13}{\ignorespaces Wireframe s~detailn\IeC {\'\i }m zobrazen\IeC {\'\i }m z\IeC {\'a}pis\IeC {\r u} a~odpov\IeC {\v e}\IeC {\v d}mi studenta}}{33}{figure.2.13}}
\newlabel{img:obrazovka:student_detail}{{2.13}{33}{Wireframe s~detailním zobrazením zápisů a~odpověďmi studenta}{figure.2.13}{}}
\@writefile{toc}{\defcounter {refsection}{0}\relax }\@writefile{toc}{\contentsline {subsection}{\numberline {2.6.4}Detail z\IeC {\'a}pisu a~odpov\IeC {\v e}di studenta}{34}{subsection.2.6.4}}
\@writefile{toc}{\defcounter {refsection}{0}\relax }\@writefile{toc}{\contentsline {subsection}{\numberline {2.6.5}Detail z\IeC {\'a}pisu s~v\IeC {\'y}sledky}{34}{subsection.2.6.5}}
\@writefile{lof}{\defcounter {refsection}{0}\relax }\@writefile{lof}{\contentsline {figure}{\numberline {2.14}{\ignorespaces Wireframe s~v\IeC {\'y}sledky z\IeC {\'a}pisu}}{34}{figure.2.14}}
\newlabel{img:obrazovka:student_vysledky}{{2.14}{34}{Wireframe s~výsledky zápisu}{figure.2.14}{}}
\@writefile{toc}{\defcounter {refsection}{0}\relax }\@writefile{toc}{\contentsline {subsection}{\numberline {2.6.6}Seznam p\IeC {\v r}edm\IeC {\v e}t\IeC {\r u}}{35}{subsection.2.6.6}}
\@writefile{lof}{\defcounter {refsection}{0}\relax }\@writefile{lof}{\contentsline {figure}{\numberline {2.15}{\ignorespaces Wireframe seznamu p\IeC {\v r}edm\IeC {\v e}t\IeC {\r u}}}{35}{figure.2.15}}
\newlabel{img:obrazovka:predmety_seznam}{{2.15}{35}{Wireframe seznamu předmětů}{figure.2.15}{}}
\@writefile{lof}{\defcounter {refsection}{0}\relax }\@writefile{lof}{\contentsline {figure}{\numberline {2.16}{\ignorespaces Wireframe s~v\IeC {\'y}sledky z\IeC {\'a}pisu}}{35}{figure.2.16}}
\newlabel{img:obrazovka:predmet_detail}{{2.16}{35}{Wireframe s~výsledky zápisu}{figure.2.16}{}}
\@writefile{toc}{\defcounter {refsection}{0}\relax }\@writefile{toc}{\contentsline {subsection}{\numberline {2.6.7}Detail p\IeC {\v r}edm\IeC {\v e}tu}{36}{subsection.2.6.7}}
\@writefile{toc}{\defcounter {refsection}{0}\relax }\@writefile{toc}{\contentsline {subsection}{\numberline {2.6.8}Seznam aprobac\IeC {\'\i }}{36}{subsection.2.6.8}}
\@writefile{lof}{\defcounter {refsection}{0}\relax }\@writefile{lof}{\contentsline {figure}{\numberline {2.17}{\ignorespaces Wireframe se seznamem u\IeC {\v c}itel\IeC {\r u} a~jejich aprobac\IeC {\'\i }}}{36}{figure.2.17}}
\newlabel{img:obrazovka:ucitel_aprobace}{{2.17}{36}{Wireframe se seznamem učitelů a~jejich aprobací}{figure.2.17}{}}
\@writefile{toc}{\defcounter {refsection}{0}\relax }\@writefile{toc}{\contentsline {subsection}{\numberline {2.6.9}Seznam z\IeC {\'a}pis\IeC {\r u}}{36}{subsection.2.6.9}}
\@writefile{lof}{\defcounter {refsection}{0}\relax }\@writefile{lof}{\contentsline {figure}{\numberline {2.18}{\ignorespaces Wireframe se seznamem z\IeC {\'a}pis\IeC {\r u}}}{37}{figure.2.18}}
\newlabel{img:obrazovka:zapis_seznam}{{2.18}{37}{Wireframe se seznamem zápisů}{figure.2.18}{}}
\@writefile{lof}{\defcounter {refsection}{0}\relax }\@writefile{lof}{\contentsline {figure}{\numberline {2.19}{\ignorespaces Wireframe se detailem z\IeC {\'a}pisu}}{37}{figure.2.19}}
\newlabel{img:obrazovka:zapis_detail}{{2.19}{37}{Wireframe se detailem zápisu}{figure.2.19}{}}
\@writefile{toc}{\defcounter {refsection}{0}\relax }\@writefile{toc}{\contentsline {subsection}{\numberline {2.6.10}Detail z\IeC {\'a}pisu}{38}{subsection.2.6.10}}
\@writefile{toc}{\defcounter {refsection}{0}\relax }\@writefile{toc}{\contentsline {subsection}{\numberline {2.6.11}Formul\IeC {\'a}\IeC {\v r} pro vyhodnocen\IeC {\'\i } z\IeC {\'a}pisu}{38}{subsection.2.6.11}}
\@writefile{lof}{\defcounter {refsection}{0}\relax }\@writefile{lof}{\contentsline {figure}{\numberline {2.20}{\ignorespaces Wireframe s~formul\IeC {\'a}\IeC {\v r}em pro vyhodnocen\IeC {\'\i } z\IeC {\'a}pisu}}{39}{figure.2.20}}
\newlabel{img:obrazovka:zapis_vyhodnoceni}{{2.20}{39}{Wireframe s~formulářem pro vyhodnocení zápisu}{figure.2.20}{}}
\@writefile{toc}{\defcounter {refsection}{0}\relax }\@writefile{toc}{\contentsline {subsection}{\numberline {2.6.12}Formul\IeC {\'a}\IeC {\v r} pro p\IeC {\v r}i\IeC {\v r}azen\IeC {\'\i } \IeC {\'u}vazk\IeC {\r u}}{40}{subsection.2.6.12}}
\@writefile{lof}{\defcounter {refsection}{0}\relax }\@writefile{lof}{\contentsline {figure}{\numberline {2.21}{\ignorespaces Wireframe s~formul\IeC {\'a}\IeC {\v r}em pro tvorbu \IeC {\'u}vazk\IeC {\r u}}}{40}{figure.2.21}}
\newlabel{img:obrazovka:tvorba_uvazku}{{2.21}{40}{Wireframe s~formulářem pro tvorbu úvazků}{figure.2.21}{}}
\@setckpt{navrh}{
\setcounter{page}{41}
\setcounter{equation}{0}
\setcounter{enumi}{0}
\setcounter{enumii}{0}
\setcounter{enumiii}{0}
\setcounter{enumiv}{0}
\setcounter{footnote}{14}
\setcounter{mpfootnote}{0}
\setcounter{@memmarkcntra}{0}
\setcounter{storedpagenumber}{1}
\setcounter{book}{0}
\setcounter{part}{0}
\setcounter{chapter}{2}
\setcounter{section}{6}
\setcounter{subsection}{12}
\setcounter{subsubsection}{0}
\setcounter{paragraph}{0}
\setcounter{subparagraph}{0}
\setcounter{@ppsavesec}{0}
\setcounter{@ppsaveapp}{0}
\setcounter{vslineno}{0}
\setcounter{poemline}{0}
\setcounter{modulo@vs}{0}
\setcounter{memfvsline}{0}
\setcounter{verse}{0}
\setcounter{chrsinstr}{0}
\setcounter{poem}{0}
\setcounter{newflo@tctr}{4}
\setcounter{@contsubnum}{0}
\setcounter{maxsecnumdepth}{3}
\setcounter{sidefootnote}{0}
\setcounter{pagenote}{0}
\setcounter{pagenoteshadow}{0}
\setcounter{memfbvline}{0}
\setcounter{bvlinectr}{0}
\setcounter{cp@cntr}{0}
\setcounter{ism@mctr}{0}
\setcounter{xsm@mctr}{0}
\setcounter{csm@mctr}{0}
\setcounter{ksm@mctr}{0}
\setcounter{xksm@mctr}{0}
\setcounter{cksm@mctr}{0}
\setcounter{msm@mctr}{0}
\setcounter{xmsm@mctr}{0}
\setcounter{cmsm@mctr}{0}
\setcounter{bsm@mctr}{0}
\setcounter{workm@mctr}{0}
\setcounter{sheetsequence}{57}
\setcounter{lastsheet}{99}
\setcounter{lastpage}{83}
\setcounter{figure}{21}
\setcounter{lofdepth}{1}
\setcounter{table}{0}
\setcounter{lotdepth}{1}
\setcounter{Item}{0}
\setcounter{Hfootnote}{14}
\setcounter{memhycontfloat}{0}
\setcounter{Hpagenote}{0}
\setcounter{bookmark@seq@number}{0}
\setcounter{@todonotes@numberoftodonotes}{0}
\setcounter{svg@param@lastpage}{0}
\setcounter{svg@param@currpage}{-1}
\setcounter{tabx@nest}{0}
\setcounter{listtotal}{0}
\setcounter{listcount}{0}
\setcounter{liststart}{0}
\setcounter{liststop}{0}
\setcounter{citecount}{0}
\setcounter{citetotal}{0}
\setcounter{multicitecount}{0}
\setcounter{multicitetotal}{0}
\setcounter{instcount}{12}
\setcounter{maxnames}{9}
\setcounter{minnames}{1}
\setcounter{maxitems}{3}
\setcounter{minitems}{1}
\setcounter{citecounter}{0}
\setcounter{savedcitecounter}{0}
\setcounter{uniquelist}{0}
\setcounter{uniquename}{0}
\setcounter{refsection}{0}
\setcounter{refsegment}{0}
\setcounter{maxextratitle}{0}
\setcounter{maxextratitleyear}{0}
\setcounter{maxextrayear}{0}
\setcounter{maxextraalpha}{0}
\setcounter{abbrvpenalty}{50}
\setcounter{highnamepenalty}{50}
\setcounter{lownamepenalty}{25}
\setcounter{maxparens}{3}
\setcounter{parenlevel}{0}
\setcounter{mincomprange}{10}
\setcounter{maxcomprange}{100000}
\setcounter{mincompwidth}{1}
\setcounter{afterword}{0}
\setcounter{savedafterword}{0}
\setcounter{annotator}{0}
\setcounter{savedannotator}{0}
\setcounter{author}{0}
\setcounter{savedauthor}{0}
\setcounter{bookauthor}{0}
\setcounter{savedbookauthor}{0}
\setcounter{commentator}{0}
\setcounter{savedcommentator}{0}
\setcounter{editor}{0}
\setcounter{savededitor}{0}
\setcounter{editora}{0}
\setcounter{savededitora}{0}
\setcounter{editorb}{0}
\setcounter{savededitorb}{0}
\setcounter{editorc}{0}
\setcounter{savededitorc}{0}
\setcounter{foreword}{0}
\setcounter{savedforeword}{0}
\setcounter{holder}{0}
\setcounter{savedholder}{0}
\setcounter{introduction}{0}
\setcounter{savedintroduction}{0}
\setcounter{namea}{0}
\setcounter{savednamea}{0}
\setcounter{nameb}{0}
\setcounter{savednameb}{0}
\setcounter{namec}{0}
\setcounter{savednamec}{0}
\setcounter{translator}{0}
\setcounter{savedtranslator}{0}
\setcounter{shortauthor}{0}
\setcounter{savedshortauthor}{0}
\setcounter{shorteditor}{0}
\setcounter{savedshorteditor}{0}
\setcounter{supervisor}{0}
\setcounter{savedsupervisor}{0}
\setcounter{labelname}{0}
\setcounter{savedlabelname}{0}
\setcounter{institution}{0}
\setcounter{savedinstitution}{0}
\setcounter{lista}{0}
\setcounter{savedlista}{0}
\setcounter{listb}{0}
\setcounter{savedlistb}{0}
\setcounter{listc}{0}
\setcounter{savedlistc}{0}
\setcounter{listd}{0}
\setcounter{savedlistd}{0}
\setcounter{liste}{0}
\setcounter{savedliste}{0}
\setcounter{listf}{0}
\setcounter{savedlistf}{0}
\setcounter{location}{0}
\setcounter{savedlocation}{0}
\setcounter{organization}{0}
\setcounter{savedorganization}{0}
\setcounter{origlocation}{0}
\setcounter{savedoriglocation}{0}
\setcounter{origpublisher}{0}
\setcounter{savedorigpublisher}{0}
\setcounter{publisher}{0}
\setcounter{savedpublisher}{0}
\setcounter{language}{0}
\setcounter{savedlanguage}{0}
\setcounter{pageref}{0}
\setcounter{savedpageref}{0}
\setcounter{textcitecount}{0}
\setcounter{textcitetotal}{0}
\setcounter{textcitemaxnames}{0}
\setcounter{biburlnumpenalty}{0}
\setcounter{biburlucpenalty}{0}
\setcounter{biburllcpenalty}{0}
\setcounter{smartand}{1}
\setcounter{AM@survey}{0}
\setcounter{lstnumber}{1}
\setcounter{loldepth}{1}
\setcounter{section@level}{0}
\setcounter{lstlisting}{0}
}
